A little bit of Monica in my life
…
It works!

top1000 %>%
  group_by(sex, name) %>%
  filter(year != lag(year)+1) %>%
  arrange(name, year, sex)

## # A tibble: 13,488 x 8
## # Groups: sex, name [4,169]
##     year sex   name       n      prop  rank relrisk loss_pct
##    <dbl> <chr> <chr>  <int>     <dbl> <int>   <dbl>    <dbl>
##  1  2015 M     Aarush   211 0.000104    971      NA       NA
##  2  1882 M     Ab         5 0.0000410   943      NA       NA
##  3  1885 M     Ab         6 0.0000517   836      NA       NA
##  4  1887 M     Ab         5 0.0000457   921      NA       NA
##  5  1890 M     Abb        6 0.0000501   884      NA       NA
##  6  1891 M     Abbie      5 0.0000458   964      NA       NA
##  7  1937 F     Abbie     52 0.0000472   964      NA       NA
##  8  1942 F     Abbie     65 0.0000468   968      NA       NA
##  9  1957 F     Abbie    120 0.0000572   938      NA       NA
## 10  1978 F     Abbie    176 0.000107    842      NA       NA
## # ... with 13,478 more rows
…
Hmmm, these rankings are slightly different than Hilary’s but pretty darn close! I think the difference comes from the fact that I didn’t round the loss percent. Close enough!

🎺 Jump up and down and move it all around 🎺

So where does Monica stand? Let’s take a look at its loss percent compared to the other names.

top1000 %>%
  filter(name == "Monica") %>%
  select(name, year, loss_pct, n) %>%
  arrange(desc(loss_pct)) 

## # A tibble: 134 x 4
##    name    year loss_pct     n
##    <chr>  <dbl>    <dbl> <int>
##  1 Monica  1999     34.2  2133
##  2 Monica  1902     32.0    33
##  3 Monica  1998     24.7  3228
##  4 Monica  1914     21.8   156
##  5 Monica  1899     18.9    30
##  6 Monica  1888     18.0    13
##  7 Monica  1919     17.8   179
##  8 Monica  1918     17.3   223
##  9 Monica  1936     17.1   273
## 10 Monica  2013     16.8   595
## # ... with 124 more rows
…
So in absolute terms, the biggest drops were among names that have higher frequencies. There is a decrease of 83 Shirley’s per 10,000 babies in the year 1937 compared to the prior year. Hilary/Hillary and Monica are nowhere near the top losses if we look at the risk difference.

But what if we compare Hilary to Monica? Who has the biggest drop in absolute terms?

rds %>%
  filter(sex == "F") %>%
  arrange(riskdiff) %>%
  select(year, name, n, riskdiff, excessrisk_per10000) %>%
  filter(name == "Monica" | name == "Hilary" | name == "Hillary",
         year > 1990)

## # A tibble: 44 x 5
##     year name        n   riskdiff excessrisk_per10000
##    <dbl> <chr>   <int>      <dbl>               <dbl>
##  1  1993 Hillary  1064 -0.000718               -7.20 
##  2  1999 Monica   2133 -0.000570               -5.70 
##  3  1998 Monica   3228 -0.000547               -5.50 
##  4  1993 Hilary    343 -0.000410               -4.10 
##  5  1994 Hillary   408 -0.000330               -3.30 
##  6  1993 Monica   3901 -0.000309               -3.10 
##  7  1991 Monica   4156 -0.000124               -1.20 
##  8  2000 Monica   1990 -0.0000984              -1.00 
##  9  2003 Monica   1612 -0.0000969              -1.00 
## 10  2001 Monica   1792 -0.0000925              -0.900
## # ... with 34 more rows
…
