A little bit of Monica in my life
…
It works!

top1000 %>%
  group_by(sex, name) %>%
  filter(year != lag(year)+1) %>%
  arrange(name, year, sex)

## # A tibble: 13,488 x 8
## # Groups: sex, name [4,169]
##     year sex   name       n      prop  rank relrisk loss_pct
##    <dbl> <chr> <chr>  <int>     <dbl> <int>   <dbl>    <dbl>
##  1  2015 M     Aarush   211 0.000104    971      NA       NA
##  2  1882 M     Ab         5 0.0000410   943      NA       NA
##  3  1885 M     Ab         6 0.0000517   836      NA       NA
##  4  1887 M     Ab         5 0.0000457   921      NA       NA
##  5  1890 M     Abb        6 0.0000501   884      NA       NA
##  6  1891 M     Abbie      5 0.0000458   964      NA       NA
##  7  1937 F     Abbie     52 0.0000472   964      NA       NA
##  8  1942 F     Abbie     65 0.0000468   968      NA       NA
##  9  1957 F     Abbie    120 0.0000572   938      NA       NA
## 10  1978 F     Abbie    176 0.000107    842      NA       NA
## # ... with 13,478 more rows
…
🎺 Jump up and down and move it all around 🎺

So where does Monica stand? Let’s take a look at its loss percent compared to the other names.

Finding Monica in babynames

First I filtered the data set to see how the loss percent for Monica compares to the list of the top poisoned names.

top1000 %>%
  filter(name == "Monica") %>%
  select(name, year, loss_pct, n) %>%
  arrange(desc(loss_pct)) 

## # A tibble: 134 x 4
##    name    year loss_pct     n
##    <chr>  <dbl>    <dbl> <int>
##  1 Monica  1999     34.2  2133
##  2 Monica  1902     32.0    33
##  3 Monica  1998     24.7  3228
##  4 Monica  1914     21.8   156
##  5 Monica  1899     18.9    30
##  6 Monica  1888     18.0    13
##  7 Monica  1919     17.8   179
##  8 Monica  1918     17.3   223
##  9 Monica  1936     17.1   273
## 10 Monica  2013     16.8   595
## # ... with 124 more rows
…
