…
## ── Conflicts ─────────────────────────────────────────────────────────── tidyverse_conflicts() ──
## ✖ dplyr::filter() masks stats::filter()
## ✖ dplyr::lag()    masks stats::lag()

mtcars %>%
  specify(response = mpg) %>%
  hypothesize(null = "point", mu = 15) %>%
  generate(reps = 100, type = "bootstrap") %>%
  calculate(stat = "mean")

## # A tibble: 100 x 2
##    replicate  stat
##        <int> <dbl>
##  1         1  16.5
##  2         2  16.3
##  3         3  15.4
##  4         4  14.9
##  5         5  14.8
##  6         6  16.1
##  7         7  12.7
##  8         8  16.1
##  9         9  15.0
## 10        10  15.2
## # ... with 90 more rows
